[
  {
    "id": 6471,
    "iid": 6432,
    "project_id": 1,
    "title": "add a test for cgi lexer options",
    "description": "closes #11",
    "state": "opened",
    "created_at": "2017-04-06T18:33:34.168Z",
    "updated_at": "2017-04-09T20:10:24.983Z",
    "target_branch": "master",
    "source_branch": "feature.custom-highlighting",
    "upvotes": 0,
    "downvotes": 0,
    "author": {
      "name": "Administrator",
      "username": "root",
      "id": 1,
      "state": "active",
      "avatar_url": "http://www.gravatar.com/avatar/e64c7d89f26bd1972efa854d13d7dd61?s=80&d=identicon",
      "web_url": "https://gitlab.example.com/root"
    },
    "assignee": null,
    "source_project_id": 1,
    "target_project_id": 1,
    "closed_at": null,
    "closed_by": null,
    "labels": [],
    "draft": false,
    "work_in_progress": false,
    "milestone": null,
    "merge_when_pipeline_succeeds": false,
    "merge_status": "unchecked",
    "sha": "5a62481d563af92b8e32d735f2fa63b94e806835",
    "merge_commit_sha": null,
    "squash_commit_sha": null,
    "user_notes_count": 1,
    "should_remove_source_branch": null,
    "force_remove_source_branch": false,
    "web_url": "https://gitlab.example.com/gitlab-org/gitlab-test/merge_requests/6432",
    "reference": "!6432",
    "references": {
      "short": "!6432",
      "relative": "!6432",
      "full": "gitlab-org/gitlab-test!6432"
    },
    "time_stats": {
      "time_estimate": 0,
      "total_time_spent": 0,
      "human_time_estimate": null,
      "human_total_time_spent": null
    }
  }
]
