{
   "id":699,
   "type":null,
   "body":"Lets promote this to an epic",
   "attachment":null,
   "author": {
      "id":1,
      "name":"Alexandra Bashirian",
      "username":"eileen.lowe",
      "state":"active",
      "avatar_url":"https://www.gravatar.com/avatar/e64c7d89f26bd1972efa854d13d7dd61?s=80&d=identicon",
      "web_url":"https://gitlab.example.com/eileen.lowe"
   },
   "created_at":"2020-12-03T12:27:17.844Z",
   "updated_at":"2020-12-03T12:27:17.844Z",
   "system":false,
   "noteable_id":461,
   "noteable_type":"Issue",
   "resolvable":false,
   "confidential":false,
   "noteable_iid":33,
   "commands_changes": {
      "promote_to_epic":true
   }
}
