[
  {
    "id": 3,
    "title": null,
    "project_id": 15,
    "action_name": "closed",
    "target_id": 830,
    "target_type": "Issue",
    "author_id": 1,
    "target_title": "Public project search field",
    "author": {
      "name": "Dmitriy Zaporozhets",
      "username": "root",
      "id": 1,
      "state": "active",
      "avatar_url": "http://localhost:3000/uploads/user/avatar/1/fox_avatar.png",
      "web_url": "http://localhost:3000/root"
    },
    "author_username": "root"
  },
  {
    "id": 4,
    "title": null,
    "project_id": 15,
    "action_name": "pushed",
    "target_id": null,
    "target_type": null,
    "author_id": 1,
    "author": {
      "name": "Dmitriy Zaporozhets",
      "username": "root",
      "id": 1,
      "state": "active",
      "avatar_url": "http://localhost:3000/uploads/user/avatar/1/fox_avatar.png",
      "web_url": "http://localhost:3000/root"
    },
    "author_username": "john",
    "push_data": {
      "commit_count": 1,
      "action": "pushed",
      "ref_type": "branch",
      "commit_from": "50d4420237a9de7be1304607147aec22e4a14af7",
      "commit_to": "c5feabde2d8cd023215af4d2ceeb7a64839fc428",
      "ref": "master",
      "commit_title": "Add simple search to projects in public area"
    },
    "target_title": null
  },
  {
    "id": 5,
    "title": null,
    "project_id": 15,
    "action_name": "closed",
    "target_id": 840,
    "target_type": "Issue",
    "author_id": 1,
    "target_title": "Finish & merge Code search PR",
    "author": {
      "name": "Dmitriy Zaporozhets",
      "username": "root",
      "id": 1,
      "state": "active",
      "avatar_url": "http://localhost:3000/uploads/user/avatar/1/fox_avatar.png",
      "web_url": "http://localhost:3000/root"
    },
    "author_username": "root"
  },
  {
    "id": 7,
    "title": null,
    "project_id": 15,
    "action_name": "commented on",
    "target_id": 1312,
    "target_type": "Note",
    "author_id": 1,
    "target_title": null,
    "created_at": "2015-12-04T10:33:58.089Z",
    "note": {
      "id": 1312,
      "body": "What an awesome day!",
      "attachment": null,
      "author": {
        "name": "Dmitriy Zaporozhets",
        "username": "root",
        "id": 1,
        "state": "active",
        "avatar_url": "http://localhost:3000/uploads/user/avatar/1/fox_avatar.png",
        "web_url": "http://localhost:3000/root"
      },
      "created_at": "2015-12-04T10:33:56.698Z",
      "system": false,
      "noteable_id": 377,
      "noteable_type": "Issue"
    },
    "author": {
      "name": "Dmitriy Zaporozhets",
      "username": "root",
      "id": 1,
      "state": "active",
      "avatar_url": "http://localhost:3000/uploads/user/avatar/1/fox_avatar.png",
      "web_url": "http://localhost:3000/root"
    },
    "author_username": "root"
  }
]
