[
  {
    "id": 8,
    "title":null,
    "project_id":1,
    "action_name":"opened",
    "target_id":160,
    "target_iid":160,
    "target_type":"Issue",
    "author_id":25,
    "target_title":"Qui natus eos odio tempore et quaerat consequuntur ducimus cupiditate quis.",
    "created_at":"2017-02-09T10:43:19.667Z",
    "author":{
      "name":"User 3",
      "username":"user3",
      "id":25,
      "state":"active",
      "avatar_url":"http://www.gravatar.com/avatar/97d6d9441ff85fdc730e02a6068d267b?s=80\u0026d=identicon",
      "web_url":"https://gitlab.example.com/user3"
    },
    "author_username":"user3"
  },
  {
    "id": 9,
    "title":null,
    "project_id":1,
    "action_name":"opened",
    "target_id":159,
    "target_iid":159,
    "target_type":"Issue",
    "author_id":21,
    "target_title":"Nostrum enim non et sed optio illo deleniti non.",
    "created_at":"2017-02-09T10:43:19.426Z",
    "author":{
      "name":"Test User",
      "username":"ted",
      "id":21,
      "state":"active",
      "avatar_url":"http://www.gravatar.com/avatar/80fb888c9a48b9a3f87477214acaa63f?s=80\u0026d=identicon",
      "web_url":"https://gitlab.example.com/ted"
    },
    "author_username":"ted"
  },
  {
    "id": 10,
    "title": null,
    "project_id": 1,
    "action_name": "commented on",
    "target_id": 1312,
    "target_iid": 1312,
    "target_type": "Note",
    "author_id": 1,
    "data": null,
    "target_title": null,
    "created_at": "2015-12-04T10:33:58.089Z",
    "note": {
      "id": 1312,
      "body": "What an awesome day!",
      "attachment": null,
      "author": {
        "name": "Dmitriy Zaporozhets",
        "username": "root",
        "id": 1,
        "state": "active",
        "avatar_url": "https://gitlab.example.com/uploads/user/avatar/1/fox_avatar.png",
        "web_url": "https://gitlab.example.com/root"
      },
      "created_at": "2015-12-04T10:33:56.698Z",
      "system": false,
      "noteable_id": 377,
      "noteable_type": "Issue",
      "noteable_iid": 377
    },
    "author": {
      "name": "Dmitriy Zaporozhets",
      "username": "root",
      "id": 1,
      "state": "active",
      "avatar_url": "https://gitlab.example.com/uploads/user/avatar/1/fox_avatar.png",
      "web_url": "https://gitlab.example.com/root"
    },
    "author_username": "root"
  }
]
