[
  {
    "note": "this code is really nice",
    "author": {
      "id": 11,
      "username": "admin",
      "email": "admin@local.host",
      "name": "Administrator",
      "state": "active",
      "created_at": "2014-03-06T08:17:35Z"
    }
  }
]
